<?xml version="1.0" encoding="UTF-8" standalone="no"?>
<!-- Created with Inkscape (http://www.inkscape.org/) -->

<svg
   xmlns:dc="http://purl.org/dc/elements/1.1/"
   xmlns:cc="http://creativecommons.org/ns#"
   xmlns:rdf="http://www.w3.org/1999/02/22-rdf-syntax-ns#"
   xmlns:svg="http://www.w3.org/2000/svg"
   xmlns="http://www.w3.org/2000/svg"
   xmlns:sodipodi="http://sodipodi.sourceforge.net/DTD/sodipodi-0.dtd"
   xmlns:inkscape="http://www.inkscape.org/namespaces/inkscape"
   width="990"
   height="765"
   id="svg2"
   version="1.1"
   inkscape:version="0.91 r13725"
   sodipodi:docname="demo-dataflow-shadertoy.svg">
  <defs
     id="defs4">
    <marker
       inkscape:stockid="Arrow1Lend"
       orient="auto"
       refY="0.0"
       refX="0.0"
       id="marker5061"
       style="overflow:visible;"
       inkscape:isstock="true">
      <path
         id="path5063"
         d="M 0.0,0.0 L 5.0,-5.0 L -12.5,0.0 L 5.0,5.0 L 0.0,0.0 z "
         style="fill-rule:evenodd;stroke:#000000;stroke-width:1pt;stroke-opacity:1;fill:#000000;fill-opacity:1"
         transform="scale(0.8) rotate(180) translate(12.5,0)" />
    </marker>
    <marker
       inkscape:stockid="Arrow1Lend"
       orient="auto"
       refY="0.0"
       refX="0.0"
       id="marker5028"
       style="overflow:visible;"
       inkscape:isstock="true">
      <path
         id="path4279"
         d="M 0.0,0.0 L 5.0,-5.0 L -12.5,0.0 L 5.0,5.0 L 0.0,0.0 z "
         style="fill-rule:evenodd;stroke:#000000;stroke-width:1pt;stroke-opacity:1;fill:#000000;fill-opacity:1"
         transform="scale(0.8) rotate(180) translate(12.5,0)" />
    </marker>
    <marker
       inkscape:stockid="Arrow1Lstart"
       orient="auto"
       refY="0.0"
       refX="0.0"
       id="Arrow1Lstart"
       style="overflow:visible"
       inkscape:isstock="true">
      <path
         id="path4276"
         d="M 0.0,0.0 L 5.0,-5.0 L -12.5,0.0 L 5.0,5.0 L 0.0,0.0 z "
         style="fill-rule:evenodd;stroke:#000000;stroke-width:1pt;stroke-opacity:1;fill:#000000;fill-opacity:1"
         transform="scale(0.8) translate(12.5,0)" />
    </marker>
    <marker
       inkscape:stockid="Arrow1Lend"
       orient="auto"
       refY="0.0"
       refX="0.0"
       id="Arrow1Lend"
       style="overflow:visible;">
      <path
         id="path3878"
         d="M 0.0,0.0 L 5.0,-5.0 L -12.5,0.0 L 5.0,5.0 L 0.0,0.0 z "
         style="fill-rule:evenodd;stroke:#000000;stroke-width:1.0pt;"
         transform="scale(0.8) rotate(180) translate(12.5,0)" />
    </marker>
  </defs>
  <sodipodi:namedview
     id="base"
     pagecolor="#ffffff"
     bordercolor="#666666"
     borderopacity="1.0"
     inkscape:pageopacity="0.0"
     inkscape:pageshadow="2"
     inkscape:zoom="1.8141414"
     inkscape:cx="266.53695"
     inkscape:cy="434.77804"
     inkscape:document-units="in"
     inkscape:current-layer="layer1"
     showgrid="false"
     inkscape:window-width="1920"
     inkscape:window-height="1147"
     inkscape:window-x="-8"
     inkscape:window-y="-8"
     inkscape:window-maximized="1"
     inkscape:snap-bbox="false"
     inkscape:snap-global="true"
     showguides="true"
     inkscape:guide-bbox="true"
     inkscape:object-nodes="true">
    <inkscape:grid
       type="xygrid"
       id="grid2985"
       empspacing="4"
       visible="true"
       enabled="true"
       snapvisiblegridlinesonly="true"
       units="in"
       spacingx="0.25in"
       spacingy="0.25in" />
    <sodipodi:guide
       orientation="1,0"
       position="90,450"
       id="guide5100" />
    <sodipodi:guide
       orientation="0,1"
       position="45,90"
       id="guide5102" />
    <sodipodi:guide
       orientation="0,1"
       position="45,675"
       id="guide5104" />
    <sodipodi:guide
       orientation="1,0"
       position="900,787.5"
       id="guide5106" />
  </sodipodi:namedview>
  <metadata
     id="metadata7">
    <rdf:RDF>
      <cc:Work
         rdf:about="">
        <dc:format>image/svg+xml</dc:format>
        <dc:type
           rdf:resource="http://purl.org/dc/dcmitype/StillImage" />
        <dc:title />
      </cc:Work>
    </rdf:RDF>
  </metadata>
  <g
     inkscape:label="Layer 1"
     inkscape:groupmode="layer"
     id="layer1"
     transform="translate(0,-287.36218)">
    <path
       id="path5207"
       style="fill:none;fill-rule:evenodd;stroke:#000000;stroke-width:1px;stroke-linecap:butt;stroke-linejoin:miter;stroke-opacity:1;marker-end:url(#marker5028)"
       d="m 482.54958,572.86218 60.97188,-0.1098 0.0804,-55.63095 -110.97223,0 0,32.26852"
       inkscape:connector-curvature="0"
       sodipodi:nodetypes="ccccc" />
    <rect
       style="fill:none;stroke:#000000"
       id="rect3053"
       width="90"
       height="45"
       x="353.86978"
       y="851.55188" />
    <rect
       style="fill:none;stroke:#000000"
       id="rect3051"
       width="90.276642"
       height="45"
       x="116.83333"
       y="550.86218" />
    <text
       xml:space="preserve"
       style="font-style:normal;font-variant:normal;font-weight:normal;font-stretch:normal;font-size:40px;line-height:125%;font-family:Arial;-inkscape-font-specification:Arial;text-align:center;letter-spacing:0px;word-spacing:0px;text-anchor:middle;fill:#000000;fill-opacity:1;stroke:none"
       x="519.74689"
       y="416.34439"
       id="text2987"
       sodipodi:linespacing="125%"><tspan
         sodipodi:role="line"
         id="tspan2989"
         x="519.74689"
         y="416.34439">Dataflow of a ShaderToy demo</tspan></text>
    <text
       xml:space="preserve"
       style="font-style:normal;font-variant:normal;font-weight:normal;font-stretch:normal;font-size:14px;line-height:125%;font-family:Arial;-inkscape-font-specification:Arial;text-align:center;letter-spacing:0px;word-spacing:0px;text-anchor:middle;fill:#000000;fill-opacity:1;stroke:none"
       x="161.80759"
       y="568.14978"
       id="text2991"
       sodipodi:linespacing="125%"><tspan
         sodipodi:role="line"
         id="tspan2993"
         x="161.80759"
         y="568.14978">Timebase</tspan><tspan
         sodipodi:role="line"
         x="161.80759"
         y="585.64978"
         id="tspan2995"
         style="font-weight:bold">(browser)</tspan></text>
    <text
       xml:space="preserve"
       style="font-size:14px;font-style:normal;font-variant:normal;font-weight:normal;font-stretch:normal;text-align:center;line-height:125%;letter-spacing:0px;word-spacing:0px;text-anchor:middle;fill:#000000;fill-opacity:1;stroke:none;font-family:Arial;-inkscape-font-specification:Arial"
       x="398.56558"
       y="870.23059"
       id="text2997"
       sodipodi:linespacing="125%"><tspan
         sodipodi:role="line"
         x="398.56558"
         y="870.23059"
         id="tspan3001">Music</tspan><tspan
         sodipodi:role="line"
         x="398.56558"
         y="887.73059"
         id="tspan4882">shader</tspan></text>
    <text
       xml:space="preserve"
       style="font-style:normal;font-variant:normal;font-weight:normal;font-stretch:normal;font-size:14px;line-height:125%;font-family:Arial;-inkscape-font-specification:Arial;letter-spacing:0px;word-spacing:0px;fill:#000000;fill-opacity:1;stroke:none"
       x="216.55832"
       y="568.88367"
       id="text3003"
       sodipodi:linespacing="125%"><tspan
         sodipodi:role="line"
         id="tspan3005"
         x="216.55832"
         y="568.88367">time</tspan></text>
    <text
       xml:space="preserve"
       style="font-style:normal;font-variant:normal;font-weight:normal;font-stretch:normal;font-size:14px;line-height:125%;font-family:Arial;-inkscape-font-specification:Arial;text-align:center;letter-spacing:0px;word-spacing:0px;text-anchor:middle;fill:#000000;fill-opacity:1;stroke:none"
       x="398.66812"
       y="572.73523"
       id="text3021"
       sodipodi:linespacing="125%"><tspan
         sodipodi:role="line"
         x="398.66812"
         y="572.73523"
         id="tspan3025">Shaders</tspan><tspan
         sodipodi:role="line"
         x="400.60953"
         y="590.23523"
         id="tspan4057">(where the </tspan><tspan
         sodipodi:role="line"
         x="398.66812"
         y="607.73523"
         id="tspan4059">magic happens!)</tspan><tspan
         sodipodi:role="line"
         x="398.66812"
         y="625.23523"
         id="tspan4886">Image, bufs A-D</tspan></text>
    <text
       xml:space="preserve"
       style="font-style:normal;font-variant:normal;font-weight:normal;font-stretch:normal;font-size:14px;line-height:125%;font-family:Arial;-inkscape-font-specification:Arial;text-align:center;letter-spacing:0px;word-spacing:0px;text-anchor:middle;fill:#000000;fill-opacity:1;stroke:none"
       x="516.91455"
       y="798.14978"
       id="text3041"
       sodipodi:linespacing="125%"><tspan
         sodipodi:role="line"
         id="tspan3043"
         x="516.91455"
         y="798.14978">Rendering backend</tspan><tspan
         sodipodi:role="line"
         x="516.91455"
         y="815.64978"
         id="tspan3047">ShaderToy+WebGL</tspan><tspan
         sodipodi:role="line"
         x="516.91455"
         y="833.14978"
         id="tspan3049" /></text>
    <rect
       style="fill:none;stroke:#000000;stroke-width:1"
       id="rect3061"
       width="111.22339"
       height="149.8148"
       x="343.25809"
       y="550.36218" />
    <path
       style="fill:none;stroke:#000000;stroke-width:1px;stroke-linecap:butt;stroke-linejoin:miter;stroke-opacity:1;marker-end:url(#Arrow1Lend)"
       d="m 206.33334,572.86218 135,0"
       id="path3073"
       inkscape:connector-curvature="0"
       sodipodi:nodetypes="cc" />
    <path
       id="path3081"
       style="fill:none;stroke:#000000;stroke-width:0.99999994px;stroke-linecap:butt;stroke-linejoin:miter;stroke-opacity:1;marker-start:none;marker-end:url(#Arrow1Lend)"
       d="m 454.75218,572.86218 27.7974,0 0,184.40971 -100.81675,0 0,47.30728 21.93857,0"
       inkscape:connector-curvature="0"
       sodipodi:nodetypes="cccccc" />
    <rect
       style="fill:none;stroke:#000000;stroke-width:0.99999994"
       id="rect3093"
       width="224.49998"
       height="45"
       x="404.99997"
       y="780.86218" />
    <g
       id="g5016"
       transform="translate(-170,-52)">
      <text
         sodipodi:linespacing="125%"
         id="text4329"
         y="530.73523"
         x="500.09402"
         style="font-style:normal;font-variant:normal;font-weight:normal;font-stretch:normal;font-size:14px;line-height:125%;font-family:Arial;-inkscape-font-specification:Arial;text-align:center;letter-spacing:0px;word-spacing:0px;text-anchor:middle;fill:#000000;fill-opacity:1;stroke:none"
         xml:space="preserve"><tspan
           id="tspan4890"
           y="530.73523"
           x="500.09402"
           sodipodi:role="line">Mouse, kbd, SoundCloud,</tspan><tspan
           id="tspan4894"
           y="548.23523"
           x="500.09402"
           sodipodi:role="line">other inputs</tspan></text>
      <rect
         style="fill:none;stroke:#000000;stroke-width:1"
         id="rect4335"
         width="169.49074"
         height="45"
         x="415.24954"
         y="513.36218" />
    </g>
    <path
       style="fill:none;stroke:#000000;stroke-width:1px;stroke-linecap:butt;stroke-linejoin:miter;stroke-opacity:1;marker-end:url(#Arrow1Lend)"
       d="m 386.98147,505.36218 0,45"
       id="path4337"
       inkscape:connector-curvature="0"
       sodipodi:nodetypes="cc" />
    <text
       xml:space="preserve"
       style="font-style:normal;font-variant:normal;font-weight:normal;font-stretch:normal;font-size:14px;line-height:125%;font-family:Arial;-inkscape-font-specification:Arial;letter-spacing:0px;word-spacing:0px;fill:#000000;fill-opacity:1;stroke:none"
       x="777.22736"
       y="877.67151"
       id="text4716"
       sodipodi:linespacing="125%"><tspan
         sodipodi:role="line"
         id="tspan4718"
         x="777.22736"
         y="877.67151">sound to speakers</tspan></text>
    <path
       style="fill:none;stroke:#000000;stroke-width:0.99999988px;stroke-linecap:butt;stroke-linejoin:miter;stroke-opacity:1;marker-end:url(#Arrow1Lend)"
       d="m 443.95801,874.05211 327.34077,0"
       id="path4720"
       inkscape:connector-curvature="0"
       sodipodi:nodetypes="cc" />
    <text
       xml:space="preserve"
       style="font-style:normal;font-weight:normal;font-size:14px;line-height:125%;font-family:Arial;letter-spacing:0px;word-spacing:0px;fill:#000000;fill-opacity:1;stroke:none;-inkscape-font-specification:Arial;font-stretch:normal;font-variant:normal;"
       x="660.51337"
       y="952.39893"
       id="text5108"
       sodipodi:linespacing="125%"><tspan
         sodipodi:role="line"
         x="660.51337"
         y="952.39893"
         id="tspan5112">cxw/Incline 2016 - CC BY-NC 4.0</tspan></text>
    <text
       sodipodi:linespacing="125%"
       id="text5128"
       y="799.12976"
       x="719.17712"
       style="font-style:normal;font-variant:normal;font-weight:normal;font-stretch:normal;font-size:14px;line-height:125%;font-family:Arial;-inkscape-font-specification:Arial;text-align:center;letter-spacing:0px;word-spacing:0px;text-anchor:middle;fill:#000000;fill-opacity:1;stroke:none"
       xml:space="preserve"><tspan
         y="799.12976"
         x="719.17712"
         id="tspan5130"
         sodipodi:role="line">OS</tspan><tspan
         id="tspan5132"
         y="816.62976"
         x="719.17712"
         sodipodi:role="line">routines</tspan></text>
    <rect
       style="fill:none;stroke:#000000"
       id="rect5134"
       width="90.276642"
       height="45"
       x="674.22339"
       y="780.36218" />
    <text
       sodipodi:linespacing="125%"
       id="text5136"
       y="806.48181"
       x="791.06934"
       style="font-style:normal;font-variant:normal;font-weight:normal;font-stretch:normal;font-size:14px;line-height:125%;font-family:Arial;-inkscape-font-specification:Arial;letter-spacing:0px;word-spacing:0px;fill:#000000;fill-opacity:1;stroke:none"
       xml:space="preserve"><tspan
         y="806.48181"
         x="791.06934"
         id="tspan5138"
         sodipodi:role="line">pixels to screen</tspan></text>
    <path
       style="fill:none;stroke:#000000;stroke-width:1px;stroke-linecap:butt;stroke-linejoin:miter;stroke-opacity:1;marker-end:url(#Arrow1Lend)"
       d="m 630,802.36218 45,0"
       id="path5140"
       inkscape:connector-curvature="0"
       sodipodi:nodetypes="cc" />
    <path
       style="fill:none;stroke:#000000;stroke-width:1px;stroke-linecap:butt;stroke-linejoin:miter;stroke-opacity:1;marker-end:url(#Arrow1Lend)"
       d="m 765,802.36218 22.5,0"
       id="path5142"
       inkscape:connector-curvature="0"
       sodipodi:nodetypes="cc" />
    <text
       xml:space="preserve"
       style="font-style:normal;font-variant:normal;font-weight:normal;font-stretch:normal;font-size:14px;line-height:125%;font-family:Arial;-inkscape-font-specification:Arial;letter-spacing:0px;word-spacing:0px;fill:#000000;fill-opacity:1;stroke:none"
       x="483.01544"
       y="438.55542"
       id="text4053"
       sodipodi:linespacing="125%"><tspan
         sodipodi:role="line"
         id="tspan4055"
         x="483.01544"
         y="438.55542">YMMV (still)</tspan></text>
    <text
       sodipodi:linespacing="125%"
       id="text4258"
       y="658.73523"
       x="398.58609"
       style="font-style:normal;font-variant:normal;font-weight:normal;font-stretch:normal;font-size:14px;line-height:125%;font-family:Arial;-inkscape-font-specification:Arial;text-align:center;letter-spacing:0px;word-spacing:0px;text-anchor:middle;fill:#000000;fill-opacity:1;stroke:none"
       xml:space="preserve"><tspan
         y="658.73523"
         x="398.58609"
         sodipodi:role="line"
         id="tspan4262">Effects</tspan><tspan
         y="676.23523"
         x="398.58609"
         sodipodi:role="line"
         id="tspan4268">code</tspan></text>
    <rect
       style="fill:none;stroke:#000000;stroke-width:1;stroke-miterlimit:4;stroke-dasharray:3,1;stroke-dashoffset:0"
       id="rect4264"
       width="90"
       height="45"
       x="353.86978"
       y="641.36218" />
    <text
       xml:space="preserve"
       style="font-style:normal;font-variant:normal;font-weight:normal;font-stretch:normal;font-size:14px;line-height:125%;font-family:Arial;-inkscape-font-specification:Arial;text-align:end;letter-spacing:0px;word-spacing:0px;text-anchor:end;fill:#000000;fill-opacity:1;stroke:none"
       x="377.31158"
       y="774.0929"
       id="text5022"
       sodipodi:linespacing="125%"><tspan
         sodipodi:role="line"
         id="tspan5024"
         x="377.31158"
         y="774.0929">pixel values</tspan><tspan
         sodipodi:role="line"
         x="377.31158"
         y="791.5929"
         id="tspan5115">RGBA</tspan></text>
    <rect
       y="494.66772"
       x="450.85767"
       height="45"
       width="76.897011"
       id="rect5055"
       style="fill:#ffffff;stroke:#000000;stroke-width:1" />
    <text
       xml:space="preserve"
       style="font-style:normal;font-variant:normal;font-weight:normal;font-stretch:normal;font-size:14px;line-height:125%;font-family:Arial;-inkscape-font-specification:Arial;text-align:center;letter-spacing:0px;word-spacing:0px;text-anchor:middle;fill:#000000;fill-opacity:1;stroke:none"
       x="489.36771"
       y="512.04077"
       id="text5049"
       sodipodi:linespacing="125%"><tspan
         sodipodi:role="line"
         x="489.36771"
         y="512.04077"
         id="tspan5053">one-frame</tspan><tspan
         sodipodi:role="line"
         x="489.36771"
         y="529.54077"
         id="tspan5258">delay</tspan></text>
    <path
       style="fill:none;stroke:#000000;stroke-width:0.99999994px;stroke-linecap:butt;stroke-linejoin:miter;stroke-opacity:1;marker-end:url(#marker5061)"
       d="m 253.90609,572.66309 0,301.61293 98.08686,0"
       id="path5059"
       inkscape:connector-curvature="0"
       sodipodi:nodetypes="ccc" />
  </g>
</svg>
